<svg width="32" height="32" fill="none" xmlns="http://www.w3.org/2000/svg">
	<mask id="a" fill="#fff">
		<path
			d="M23.68 0c4.079 0 7.4 3.322 7.4 7.4v16.28c0 4.078-3.321 7.4-7.4 7.4H7.4c-4.078 0-7.4-3.322-7.4-7.4V7.4C0 3.322 3.322 0 7.4 0h16.28Zm0 1.48H7.4A5.908 5.908 0 0 0 1.48 7.4v16.28A5.908 5.908 0 0 0 7.4 29.6h16.28a5.908 5.908 0 0 0 5.92-5.92V7.4a5.908 5.908 0 0 0-5.92-5.92Zm.74 6.66a2.231 2.231 0 0 1 2.22 2.22v10.36a2.231 2.231 0 0 1-2.22 2.22H6.66a2.231 2.231 0 0 1-2.22-2.22V10.36a2.231 2.231 0 0 1 2.22-2.22h17.76Zm-.306 1.48H6.968l6.59 6.58a2.801 2.801 0 0 0 3.977 0l6.579-6.58ZM5.92 10.665v9.75l4.882-4.875-4.882-4.875Zm19.24.001-4.873 4.874 4.873 4.874v-9.748ZM11.85 16.585 6.966 21.46h17.148l-4.874-4.874-.659.66a4.303 4.303 0 0 1-6.067.002l-.665-.663Z"
		/>
	</mask>
	<path
		d="M23.68 0c4.079 0 7.4 3.322 7.4 7.4v16.28c0 4.078-3.321 7.4-7.4 7.4H7.4c-4.078 0-7.4-3.322-7.4-7.4V7.4C0 3.322 3.322 0 7.4 0h16.28Zm0 1.48H7.4A5.908 5.908 0 0 0 1.48 7.4v16.28A5.908 5.908 0 0 0 7.4 29.6h16.28a5.908 5.908 0 0 0 5.92-5.92V7.4a5.908 5.908 0 0 0-5.92-5.92Zm.74 6.66a2.231 2.231 0 0 1 2.22 2.22v10.36a2.231 2.231 0 0 1-2.22 2.22H6.66a2.231 2.231 0 0 1-2.22-2.22V10.36a2.231 2.231 0 0 1 2.22-2.22h17.76Zm-.306 1.48H6.968l6.59 6.58a2.801 2.801 0 0 0 3.977 0l6.579-6.58ZM5.92 10.665v9.75l4.882-4.875-4.882-4.875Zm19.24.001-4.873 4.874 4.873 4.874v-9.748ZM11.85 16.585 6.966 21.46h17.148l-4.874-4.874-.659.66a4.303 4.303 0 0 1-6.067.002l-.665-.663Z"
		fill="rgb(239, 179, 48)"
	/>
	<path
		d="M24.114 9.62v-2h4.828l-3.414 3.414-1.414-1.414Zm-17.146 0-1.413 1.415-3.42-3.415h4.833v2Zm6.59 6.58-1.412 1.416 1.413-1.415Zm3.977 0-1.415-1.415 1.415 1.414ZM5.92 10.664h-2V5.842L7.333 9.25 5.92 10.665Zm0 9.75 1.413 1.415-3.413 3.408v-4.823h2Zm4.882-4.875 1.414-1.415 1.417 1.415-1.417 1.415-1.414-1.415Zm14.358-4.874-1.414-1.414 3.414-3.414v4.828h-2Zm-4.873 4.874-1.415 1.414-1.414-1.414 1.414-1.414 1.415 1.414Zm4.873 4.874h2v4.828l-3.414-3.414 1.414-1.414ZM11.85 16.585l-1.413-1.415 1.412-1.41 1.413 1.41-1.412 1.415ZM6.966 21.46v2H2.133l3.42-3.415 1.413 1.415Zm17.148 0 1.414-1.414 3.414 3.414h-4.828v-2Zm-4.874-4.874-1.414-1.414 1.414-1.414 1.414 1.414-1.414 1.414Zm-.659.66-1.414-1.415 1.414 1.415Zm-6.067.002 1.412-1.415-1.412 1.415ZM23.68-2c5.183 0 9.4 4.217 9.4 9.4h-4c0-2.974-2.426-5.4-5.4-5.4v-4Zm9.4 9.4v16.28h-4V7.4h4Zm0 16.28c0 5.183-4.217 9.4-9.4 9.4v-4c2.974 0 5.4-2.426 5.4-5.4h4Zm-9.4 9.4H7.4v-4h16.28v4Zm-16.28 0c-5.183 0-9.4-4.217-9.4-9.4h4c0 2.974 2.426 5.4 5.4 5.4v4Zm-9.4-9.4V7.4h4v16.28h-4ZM-2 7.4C-2 2.217 2.217-2 7.4-2v4A5.41 5.41 0 0 0 2 7.4h-4ZM7.4-2h16.28v4H7.4v-4Zm16.28 5.48H7.4v-4h16.28v4Zm-16.28 0A3.908 3.908 0 0 0 3.48 7.4h-4A7.908 7.908 0 0 1 7.4-.52v4ZM3.48 7.4v16.28h-4V7.4h4Zm0 16.28A3.908 3.908 0 0 0 7.4 27.6v4a7.908 7.908 0 0 1-7.92-7.92h4ZM7.4 27.6h16.28v4H7.4v-4Zm16.28 0a3.908 3.908 0 0 0 3.92-3.92h4a7.908 7.908 0 0 1-7.92 7.92v-4Zm3.92-3.92V7.4h4v16.28h-4Zm0-16.28a3.908 3.908 0 0 0-3.92-3.92v-4A7.908 7.908 0 0 1 31.6 7.4h-4Zm-3.18-1.26a4.231 4.231 0 0 1 4.22 4.22h-4a.214.214 0 0 0-.068-.152.214.214 0 0 0-.152-.068v-4Zm4.22 4.22v10.36h-4V10.36h4Zm0 10.36a4.231 4.231 0 0 1-4.22 4.22v-4c.05 0 .103-.019.152-.068a.214.214 0 0 0 .068-.152h4Zm-4.22 4.22H6.66v-4h17.76v4Zm-17.76 0a4.231 4.231 0 0 1-4.22-4.22h4c0 .05.019.103.068.152a.214.214 0 0 0 .152.068v4Zm-4.22-4.22V10.36h4v10.36h-4Zm0-10.36a4.231 4.231 0 0 1 4.22-4.22v4a.214.214 0 0 0-.152.068.214.214 0 0 0-.068.152h-4Zm4.22-4.22h17.76v4H6.66v-4Zm17.454 5.48H6.968v-4h17.146v4ZM8.38 8.205l6.59 6.58-2.826 2.83-6.59-6.58 2.826-2.83Zm6.59 6.58a.802.802 0 0 0 1.15 0l2.828 2.828a4.801 4.801 0 0 1-6.804.003l2.827-2.83Zm1.15 0 6.579-6.58 2.828 2.83-6.58 6.578-2.828-2.828Zm-8.2-4.12v9.75h-4v-9.75h4ZM4.506 19l4.882-4.875 2.827 2.83-4.883 4.875L4.507 19Zm4.882-2.045L4.507 12.08l2.826-2.83 4.883 4.875-2.827 2.83Zm17.185-4.874-4.873 4.873-2.829-2.828 4.874-4.874 2.828 2.829Zm-4.873 2.045 4.873 4.873-2.828 2.829-4.874-4.874 2.829-2.828Zm1.46 6.288v-9.748h4v9.748h-4ZM13.26 18 8.38 22.875l-2.827-2.83 4.883-4.875L13.262 18Zm-6.295 1.46h17.148v4H6.966v-4ZM22.7 22.874l-4.873-4.873 2.828-2.829 4.874 4.874-2.828 2.828Zm-2.045-4.873-.659.659-2.828-2.829.659-.659 2.828 2.829Zm-.659.659c-2.45 2.45-6.443 2.451-8.895.004l2.827-2.831a2.303 2.303 0 0 0 3.24-.002l2.828 2.829Zm-8.894.004-.665-.663 2.825-2.832.665.664-2.825 2.831Z"
		fill="rgb(239, 179, 48)"
		mask="url(#a)"
	/>
</svg>
