<svg width="87" height="35" viewBox="0 0 87 35" fill="none" xmlns="http://www.w3.org/2000/svg">
	<g clip-path="url(#clip0_28_304)">
		<path
			d="M12.4131 24.4868V9.4488L23.2792 2.94584L34.1451 9.4488V24.4868H36.6924V8.0274L23.2792 0L9.86597 8.0274V24.4868H12.4131Z"
			fill="#EFB330"
		/>
		<path
			d="M29.0957 16.0971H29.8033C29.8031 12.5312 26.8826 9.64095 23.2791 9.64073C19.6759 9.64095 16.7553 12.5312 16.755 16.0971C16.7553 19.663 19.6759 22.5531 23.2791 22.5534C26.8825 22.5531 29.8031 19.663 29.8033 16.0971H29.0957C29.0956 17.6877 28.4453 19.1245 27.3921 20.1672C26.3385 21.2095 24.8865 21.853 23.2791 21.8531C21.6718 21.853 20.2199 21.2095 19.1662 20.1672C18.1131 19.1245 17.4627 17.6877 17.4626 16.0971C17.4627 14.5064 18.1131 13.0697 19.1662 12.0269C20.2199 10.9846 21.6718 10.3411 23.2791 10.341C24.8865 10.3411 26.3385 10.9846 27.3921 12.0269C28.4453 13.0697 29.0956 14.5064 29.0957 16.0971Z"
			fill="#EFB330"
		/>
		<path
			d="M4.45691 14.145H52.5592V13.5849H4.45691M4.45691 16.3771H52.5592V15.817H4.45691M4.45691 18.6092H52.5592V18.0491H4.45691"
			fill="#121212"
		/>
		<path
			d="M4.17388 12.2922V19.902H4.73995V12.2922M0.0823594 19.902C0.0798814 19.9187 0 20.4494 0 21.3117C0.000585707 22.8027 0.237256 25.292 1.54852 27.8229C2.20406 29.0875 3.12975 30.3608 4.42425 31.5135C5.71835 32.6666 7.38018 33.6977 9.4994 34.4855L9.51129 34.49L9.52319 34.4935C10.6227 34.8304 11.7306 34.9798 12.8273 34.9797C14.974 34.9794 17.0748 34.4103 19.0285 33.5634C20.9826 32.7159 22.7923 31.5892 24.3605 30.4562C25.1931 29.8546 25.9556 29.4344 26.6879 29.1645C27.4207 28.8947 28.1237 28.7728 28.8552 28.7724C29.7864 28.7723 30.7692 28.9734 31.8912 29.3459C33.0126 29.7179 34.2696 30.2604 35.737 30.9268L35.7496 30.9326L35.7625 30.9375C36.2091 31.1058 36.769 31.2084 37.397 31.2089C38.0714 31.2088 38.8234 31.0882 39.5762 30.7842C40.7053 30.3297 41.831 29.4527 42.6551 27.9907C43.4807 26.5286 44.0095 24.4947 44.0096 21.7093C44.0096 21.5151 44.0071 21.3175 44.0019 21.1159L43.5774 21.1268L43.585 21.5467L74.9186 21.0037V22.8423L75.4974 22.6189L75.4641 22.5342L75.4972 22.619L75.4974 22.6189L75.4641 22.5342L75.4972 22.619C75.5135 22.6118 76.9868 22.0553 78.9527 22.0565C79.9515 22.0565 81.0758 22.1986 82.208 22.6206C83.9934 23.2854 85.1081 23.4668 85.8186 23.4677C86.186 23.4677 86.446 23.4181 86.6286 23.3557C86.8109 23.2939 86.9144 23.2176 86.9585 23.1762L86.3778 22.5631L86.5902 22.7875L86.4033 22.5417L86.3778 22.5631L86.5902 22.7875L86.4033 22.5417L86.4612 22.6178L86.4108 22.5365L86.4033 22.5417L86.4612 22.6178L86.4108 22.5365C86.4101 22.5367 86.3743 22.5588 86.282 22.5816C86.1898 22.6044 86.0409 22.6275 85.8186 22.6275C85.2578 22.6283 84.2301 22.4773 82.5072 21.8343C81.2598 21.3695 80.0322 21.2162 78.9527 21.2162C76.7932 21.2174 75.2194 21.8253 75.1888 21.836L75.3431 22.2275H75.7676V20.1487L43.1421 20.7141L43.1531 21.1373C43.1581 21.3319 43.1606 21.5225 43.1606 21.7093C43.1606 23.4968 42.9338 24.9323 42.5644 26.0755C42.0086 27.7908 41.1419 28.8484 40.2081 29.4933C39.274 30.137 38.2565 30.3686 37.397 30.3687C36.8653 30.3692 36.3956 30.2781 36.0656 30.1527L35.9141 30.5451L36.0911 30.1632C34.6154 29.4934 33.3365 28.9395 32.1613 28.5492C30.9864 28.1595 29.9113 27.9324 28.8552 27.9322C28.0268 27.9318 27.2133 28.0737 26.3915 28.377C25.5692 28.6802 24.7393 29.1422 23.8598 29.7776C22.3269 30.8855 20.565 31.98 18.6878 32.7937C16.8104 33.6081 14.8204 34.1399 12.8273 34.1395C11.8082 34.1394 10.7877 34.0012 9.77428 33.6909L9.64867 34.0923L9.79807 33.6989C7.77003 32.9447 6.20525 31.9692 4.9923 30.889C3.17381 29.2689 2.14157 27.4087 1.55875 25.6817C0.976509 23.9555 0.848779 22.3641 0.849005 21.3117C0.849005 20.9062 0.867837 20.5809 0.8864 20.359C0.895681 20.2481 0.904827 20.1631 0.91163 20.1068C0.914964 20.0786 0.917713 20.0577 0.919605 20.0443L0.921497 20.03L0.921993 20.0271L0.899375 20.0238L0.921993 20.0271L0.899375 20.0238L0.921993 20.0271L0.0823594 19.902Z"
			fill="#EFB330"
		/>
		<path
			d="M78.5339 23.1143C78.5339 22.8188 78.1776 22.5792 77.7382 22.5792C77.2988 22.5792 76.9425 22.8188 76.9425 23.1143C76.9425 23.4099 77.2988 23.6495 77.7382 23.6495C78.1776 23.6495 78.5339 23.4099 78.5339 23.1143ZM81.7255 23.5967C81.7635 23.3036 81.4409 23.0211 81.0051 22.9657C80.5692 22.9105 80.185 23.1033 80.147 23.3964C80.1091 23.6897 80.4316 23.9721 80.8675 24.0274C81.3034 24.0826 81.6876 23.8898 81.7255 23.5967ZM84.819 24.2848C84.9053 24.0018 84.6342 23.6707 84.2135 23.545C83.7928 23.4193 83.3818 23.5468 83.2956 23.8297C83.2092 24.1127 83.4802 24.4439 83.9009 24.5696C84.3217 24.6952 84.7327 24.5677 84.819 24.2848Z"
			fill="#121212"
		/>
	</g>
	<defs>
		<clipPath id="clip0_28_304">
			<rect width="87" height="35" fill="white" />
		</clipPath>
	</defs>
</svg>
