<svg width="40" height="41" viewBox="0 0 40 41" fill="none" xmlns="http://www.w3.org/2000/svg">
	<g clip-path="url(#clip0_28_279)">
		<path
			fill-rule="evenodd"
			clip-rule="evenodd"
			d="M39.0475 9.03292C39.0475 4.82785 35.6335 1.41388 31.4285 1.41388H8.57131C4.36624 1.41388 0.952271 4.82785 0.952271 9.03292V31.8901C0.952271 36.0951 4.36624 39.5091 8.57131 39.5091H31.4285C35.6335 39.5091 39.0475 36.0951 39.0475 31.8901V9.03292Z"
			fill="rgb(51, 50, 52)"
			stroke="white"
			stroke-width="1.90469"
			stroke-miterlimit="1.5"
			stroke-linecap="round"
			stroke-linejoin="round"
		/>
		<path
			fill-rule="evenodd"
			clip-rule="evenodd"
			d="M16.89 17.8531H13.4573V22.1465H16.89V33.0177H22.1281V22.1465H25.6206L26.5428 17.8531H22.1281V16.6762C22.1281 15.8452 22.0971 15.0444 22.2625 14.354C22.3731 13.8923 22.4796 13.5259 22.7285 13.2049C22.9277 12.9479 23.3655 12.5 23.9237 12.5H26.5428V7.90552H23.9237C22.2224 7.90552 20.2261 8.43263 19.2067 9.16591C17.1522 10.6439 16.89 13.2469 16.89 16.6762V17.8531Z"
			fill="white"
		/>
	</g>
	<defs>
		<clipPath id="clip0_28_279">
			<rect width="40" height="40" fill="white" transform="translate(0 0.461548)" />
		</clipPath>
	</defs>
</svg>
